<?xml version="1.0"?>
<robot xmlns:xacro="http://wiki.ros.org/xacro">
    <xacro:macro name="ece383">
        <!-- PLACE ALL WORLD MODIFICATIONS HERE -->
        
        <xacro:include filename="$(find ur5e_robotiq2f140_demo)/urdf/my_camera.xacro"/>
        <xacro:my_camera />

        <xacro:include filename="$(find ur5e_robotiq2f140_demo)/urdf/pokerTable.xacro"/>
        <xacro:pokerTable />

        <!-- <xacro:include filename="$(find ur5e_robotiq2f140_demo)/urdf/pokerChip.xacro"/> -->
        <!-- <xacro:cube parent_link="world" size="1 1 1" mass="1.0"/> -->

        <!-- <xacro:include filename="$(find ur5e_robotiq2f140_demo)/urdf/disc_holder.xacro"/> -->
        <!-- <xacro:disc_holder  x="0.5" y="-0.05" z="0.8"/> -->


    </xacro:macro>
</robot>