 <robot name="simple_box">
   2   <link name="chip_link">
   3     <inertial>
   4       <origin xyz="0 0 0" />
   5       <mass value="0.25" />
   6       <inertia  ixx="1.0" ixy="0.0"  ixz="0.0"  iyy="100.0"  iyz="0.0"  izz="1.0" />
   7     </inertial>
   8     <visual>
   9       <origin xyz="0 0 0"/>
  10       <geometry>
  11         <!-- <box size="0.07 0.07 0.07" /> -->
            <mesh filename="package://ur5e_robotiq2f140_demo/meshes/visual/pokerchip.stl" scale="0.0025 0.0025 0.0025"/>
  12       </geometry>
  13     </visual>
  14     <collision>
  15       <origin xyz="0 0 0"/>
  16       <geometry>
  17         <box size="0.05 0.05 0.05" />
  18       </geometry>
  19     </collision>
  20   </link>
  21   <gazebo reference="chip_link">
  22     <material>Gazebo/Red</material>
  23   </gazebo>
  24 </robot>